EESchema Schematic File Version 2
LIBS:power
LIBS:device
LIBS:transistors
LIBS:conn
LIBS:linear
LIBS:regul
LIBS:74xx
LIBS:cmos4000
LIBS:adc-dac
LIBS:memory
LIBS:xilinx
LIBS:microcontrollers
LIBS:dsp
LIBS:microchip
LIBS:analog_switches
LIBS:motorola
LIBS:texas
LIBS:intel
LIBS:audio
LIBS:interface
LIBS:digital-audio
LIBS:philips
LIBS:display
LIBS:cypress
LIBS:siliconi
LIBS:opto
LIBS:atmel
LIBS:contrib
LIBS:valves
LIBS:BoosterPack_Prototype-cache
EELAYER 25 0
EELAYER END
$Descr A4 11693 8268
encoding utf-8
Sheet 1 1
Title ""
Date ""
Rev ""
Comp ""
Comment1 ""
Comment2 ""
Comment3 ""
Comment4 ""
$EndDescr
$Comp
L Q_PMOS_GSD Q2
U 1 1 583723B7
P 4100 4000
F 0 "Q2" H 4400 4050 50  0000 R CNN
F 1 "AO3401A" H 4750 3950 50  0000 R CNN
F 2 "TO_SOT_Packages_SMD:SOT-23" H 4300 4100 50  0001 C CNN
F 3 "http://aosmd.com/res/data_sheets/AO3401A.pdf" H 4100 4000 50  0001 C CNN
	1    4100 4000
	1    0    0    1   
$EndComp
$Comp
L Q_NMOS_GSD Q3
U 1 1 58372966
P 4100 4700
F 0 "Q3" H 4400 4750 50  0000 R CNN
F 1 "AO3400A" H 4750 4650 50  0000 R CNN
F 2 "TO_SOT_Packages_SMD:SOT-23" H 4750 4650 50  0001 R CNN
F 3 "" H 4100 4700 50  0000 C CNN
	1    4100 4700
	1    0    0    -1  
$EndComp
$Comp
L GND #PWR4
U 1 1 583730A8
P 4200 5100
F 0 "#PWR4" H 4200 4850 50  0001 C CNN
F 1 "GND" H 4200 4950 50  0000 C CNN
F 2 "" H 4200 5100 50  0000 C CNN
F 3 "" H 4200 5100 50  0000 C CNN
	1    4200 5100
	1    0    0    -1  
$EndComp
$Comp
L VCOM #PWR3
U 1 1 5837319F
P 4200 3350
F 0 "#PWR3" H 4200 3200 50  0001 C CNN
F 1 "VCOM" H 4200 3500 50  0000 C CNN
F 2 "" H 4200 3350 50  0000 C CNN
F 3 "" H 4200 3350 50  0000 C CNN
	1    4200 3350
	1    0    0    -1  
$EndComp
$Comp
L R R3
U 1 1 58373D36
P 3500 3600
F 0 "R3" V 3580 3600 50  0000 C CNN
F 1 "R" V 3500 3600 50  0000 C CNN
F 2 "Resistors_SMD:R_0805_HandSoldering" V 3430 3600 50  0001 C CNN
F 3 "" H 3500 3600 50  0000 C CNN
	1    3500 3600
	1    0    0    -1  
$EndComp
$Comp
L R R4
U 1 1 58373DCF
P 3650 4900
F 0 "R4" V 3730 4900 50  0000 C CNN
F 1 "R" V 3650 4900 50  0000 C CNN
F 2 "Resistors_SMD:R_0805_HandSoldering" V 3580 4900 50  0001 C CNN
F 3 "" H 3650 4900 50  0000 C CNN
	1    3650 4900
	1    0    0    -1  
$EndComp
$Comp
L Q_NMOS_GSD Q1
U 1 1 58373F01
P 3400 4350
F 0 "Q1" H 3700 4400 50  0000 R CNN
F 1 "AO3400A" H 4050 4300 50  0000 R CNN
F 2 "TO_SOT_Packages_SMD:SOT-23" H 3600 4450 50  0001 C CNN
F 3 "" H 3400 4350 50  0000 C CNN
	1    3400 4350
	1    0    0    -1  
$EndComp
$Comp
L CONN_02X10 P1
U 1 1 583E517D
P 1500 1300
F 0 "P1" H 1500 1850 50  0000 C CNN
F 1 "CONN_02X10" V 1500 1300 50  0000 C CNN
F 2 "Pin_Headers:Pin_Header_Straight_2x10" H 1500 100 50  0001 C CNN
F 3 "" H 1500 100 50  0000 C CNN
	1    1500 1300
	1    0    0    -1  
$EndComp
Text GLabel 1750 850  2    60   Input ~ 0
GND
Text GLabel 1250 850  0    60   Input ~ 0
OP1_EN
Text GLabel 1250 950  0    60   Input ~ 0
OP2_EN
Text GLabel 1250 1050 0    60   Input ~ 0
OP3_EN
Text GLabel 1250 1150 0    60   Input ~ 0
OP4_EN
Text GLabel 1750 950  2    60   Input ~ 0
OP5_EN
Text GLabel 1250 1450 0    60   Input ~ 0
OD1_EN
Text GLabel 1250 1550 0    60   Input ~ 0
OD2_EN
Text GLabel 1250 1650 0    60   Input ~ 0
OD3_EN
Text GLabel 1250 1750 0    60   Input ~ 0
OD4_EN
Text GLabel 1750 1150 2    60   Input ~ 0
OD5_EN
Text GLabel 3150 4350 0    60   Input ~ 0
OP4_EN
Text GLabel 3150 4700 0    60   Input ~ 0
OD4_EN
Text GLabel 4800 4350 2    60   Input ~ 0
OUT_4
Text GLabel 10800 3000 0    60   Input ~ 0
OUT_1
Text GLabel 10800 3100 0    60   Input ~ 0
OUT_2
Text GLabel 10800 3200 0    60   Input ~ 0
OUT_3
Text GLabel 10800 3300 0    60   Input ~ 0
OUT_4
Text GLabel 10800 3400 0    60   Input ~ 0
OUT_5
$Comp
L Q_PMOS_GSD Q5
U 1 1 583F7D81
P 4100 1550
F 0 "Q5" H 4400 1600 50  0000 R CNN
F 1 "AO3401A" H 4750 1500 50  0000 R CNN
F 2 "TO_SOT_Packages_SMD:SOT-23" H 4300 1650 50  0001 C CNN
F 3 "http://aosmd.com/res/data_sheets/AO3401A.pdf" H 4100 1550 50  0001 C CNN
	1    4100 1550
	1    0    0    1   
$EndComp
$Comp
L Q_NMOS_GSD Q6
U 1 1 583F7D87
P 4100 2250
F 0 "Q6" H 4400 2300 50  0000 R CNN
F 1 "AO3400A" H 4750 2200 50  0000 R CNN
F 2 "TO_SOT_Packages_SMD:SOT-23" H 4750 2200 50  0001 R CNN
F 3 "" H 4100 2250 50  0000 C CNN
	1    4100 2250
	1    0    0    -1  
$EndComp
$Comp
L GND #PWR2
U 1 1 583F7D8D
P 4200 2650
F 0 "#PWR2" H 4200 2400 50  0001 C CNN
F 1 "GND" H 4200 2500 50  0000 C CNN
F 2 "" H 4200 2650 50  0000 C CNN
F 3 "" H 4200 2650 50  0000 C CNN
	1    4200 2650
	1    0    0    -1  
$EndComp
$Comp
L VCOM #PWR1
U 1 1 583F7D93
P 4200 900
F 0 "#PWR1" H 4200 750 50  0001 C CNN
F 1 "VCOM" H 4200 1050 50  0000 C CNN
F 2 "" H 4200 900 50  0000 C CNN
F 3 "" H 4200 900 50  0000 C CNN
	1    4200 900 
	1    0    0    -1  
$EndComp
$Comp
L R R1
U 1 1 583F7D9F
P 3500 1150
F 0 "R1" V 3580 1150 50  0000 C CNN
F 1 "R" V 3500 1150 50  0000 C CNN
F 2 "Resistors_SMD:R_0805_HandSoldering" V 3430 1150 50  0001 C CNN
F 3 "" H 3500 1150 50  0000 C CNN
	1    3500 1150
	1    0    0    -1  
$EndComp
$Comp
L R R2
U 1 1 583F7DA5
P 3650 2450
F 0 "R2" V 3730 2450 50  0000 C CNN
F 1 "R" V 3650 2450 50  0000 C CNN
F 2 "Resistors_SMD:R_0805_HandSoldering" V 3580 2450 50  0001 C CNN
F 3 "" H 3650 2450 50  0000 C CNN
	1    3650 2450
	1    0    0    -1  
$EndComp
$Comp
L Q_NMOS_GSD Q4
U 1 1 583F7DAB
P 3400 1900
F 0 "Q4" H 3700 1950 50  0000 R CNN
F 1 "AO3400A" H 4050 1850 50  0000 R CNN
F 2 "TO_SOT_Packages_SMD:SOT-23" H 3600 2000 50  0001 C CNN
F 3 "" H 3400 1900 50  0000 C CNN
	1    3400 1900
	1    0    0    -1  
$EndComp
Text GLabel 3150 1900 0    60   Input ~ 0
OP1_EN
Text GLabel 3150 2250 0    60   Input ~ 0
OD1_EN
Text GLabel 4800 1900 2    60   Input ~ 0
OUT_1
$Comp
L Q_PMOS_GSD Q9
U 1 1 583F8067
P 6600 1550
F 0 "Q9" H 6900 1600 50  0000 R CNN
F 1 "AO3401A" H 7250 1500 50  0000 R CNN
F 2 "TO_SOT_Packages_SMD:SOT-23" H 6800 1650 50  0001 C CNN
F 3 "http://aosmd.com/res/data_sheets/AO3401A.pdf" H 6600 1550 50  0001 C CNN
	1    6600 1550
	1    0    0    1   
$EndComp
$Comp
L Q_NMOS_GSD Q10
U 1 1 583F806D
P 6600 2250
F 0 "Q10" H 6900 2300 50  0000 R CNN
F 1 "AO3400A" H 7250 2200 50  0000 R CNN
F 2 "TO_SOT_Packages_SMD:SOT-23" H 7250 2200 50  0001 R CNN
F 3 "" H 6600 2250 50  0000 C CNN
	1    6600 2250
	1    0    0    -1  
$EndComp
$Comp
L GND #PWR6
U 1 1 583F8073
P 6700 2650
F 0 "#PWR6" H 6700 2400 50  0001 C CNN
F 1 "GND" H 6700 2500 50  0000 C CNN
F 2 "" H 6700 2650 50  0000 C CNN
F 3 "" H 6700 2650 50  0000 C CNN
	1    6700 2650
	1    0    0    -1  
$EndComp
$Comp
L VCOM #PWR5
U 1 1 583F8079
P 6700 900
F 0 "#PWR5" H 6700 750 50  0001 C CNN
F 1 "VCOM" H 6700 1050 50  0000 C CNN
F 2 "" H 6700 900 50  0000 C CNN
F 3 "" H 6700 900 50  0000 C CNN
	1    6700 900 
	1    0    0    -1  
$EndComp
$Comp
L R R7
U 1 1 583F8085
P 6000 1150
F 0 "R7" V 6080 1150 50  0000 C CNN
F 1 "R" V 6000 1150 50  0000 C CNN
F 2 "Resistors_SMD:R_0805_HandSoldering" V 5930 1150 50  0001 C CNN
F 3 "" H 6000 1150 50  0000 C CNN
	1    6000 1150
	1    0    0    -1  
$EndComp
$Comp
L R R9
U 1 1 583F808B
P 6150 2450
F 0 "R9" V 6230 2450 50  0000 C CNN
F 1 "R" V 6150 2450 50  0000 C CNN
F 2 "Resistors_SMD:R_0805_HandSoldering" V 6080 2450 50  0001 C CNN
F 3 "" H 6150 2450 50  0000 C CNN
	1    6150 2450
	1    0    0    -1  
$EndComp
$Comp
L Q_NMOS_GSD Q7
U 1 1 583F8091
P 5900 1900
F 0 "Q7" H 6200 1950 50  0000 R CNN
F 1 "AO3400A" H 6550 1850 50  0000 R CNN
F 2 "TO_SOT_Packages_SMD:SOT-23" H 6100 2000 50  0001 C CNN
F 3 "" H 5900 1900 50  0000 C CNN
	1    5900 1900
	1    0    0    -1  
$EndComp
Text GLabel 5650 1900 0    60   Input ~ 0
OP2_EN
Text GLabel 5650 2250 0    60   Input ~ 0
OD2_EN
Text GLabel 7300 1900 2    60   Input ~ 0
OUT_2
$Comp
L Q_PMOS_GSD Q14
U 1 1 583F8211
P 9100 1550
F 0 "Q14" H 9400 1600 50  0000 R CNN
F 1 "AO3401A" H 9750 1500 50  0000 R CNN
F 2 "TO_SOT_Packages_SMD:SOT-23" H 9300 1650 50  0001 C CNN
F 3 "http://aosmd.com/res/data_sheets/AO3401A.pdf" H 9100 1550 50  0001 C CNN
	1    9100 1550
	1    0    0    1   
$EndComp
$Comp
L Q_NMOS_GSD Q15
U 1 1 583F8217
P 9100 2250
F 0 "Q15" H 9400 2300 50  0000 R CNN
F 1 "AO3400A" H 9750 2200 50  0000 R CNN
F 2 "TO_SOT_Packages_SMD:SOT-23" H 9750 2200 50  0001 R CNN
F 3 "" H 9100 2250 50  0000 C CNN
	1    9100 2250
	1    0    0    -1  
$EndComp
$Comp
L GND #PWR12
U 1 1 583F821D
P 9200 2650
F 0 "#PWR12" H 9200 2400 50  0001 C CNN
F 1 "GND" H 9200 2500 50  0000 C CNN
F 2 "" H 9200 2650 50  0000 C CNN
F 3 "" H 9200 2650 50  0000 C CNN
	1    9200 2650
	1    0    0    -1  
$EndComp
$Comp
L VCOM #PWR11
U 1 1 583F8223
P 9200 900
F 0 "#PWR11" H 9200 750 50  0001 C CNN
F 1 "VCOM" H 9200 1050 50  0000 C CNN
F 2 "" H 9200 900 50  0000 C CNN
F 3 "" H 9200 900 50  0000 C CNN
	1    9200 900 
	1    0    0    -1  
$EndComp
$Comp
L R R13
U 1 1 583F822F
P 8500 1150
F 0 "R13" V 8580 1150 50  0000 C CNN
F 1 "R" V 8500 1150 50  0000 C CNN
F 2 "Resistors_SMD:R_0805_HandSoldering" V 8430 1150 50  0001 C CNN
F 3 "" H 8500 1150 50  0000 C CNN
	1    8500 1150
	1    0    0    -1  
$EndComp
$Comp
L R R14
U 1 1 583F8235
P 8650 2450
F 0 "R14" V 8730 2450 50  0000 C CNN
F 1 "R" V 8650 2450 50  0000 C CNN
F 2 "Resistors_SMD:R_0805_HandSoldering" V 8580 2450 50  0001 C CNN
F 3 "" H 8650 2450 50  0000 C CNN
	1    8650 2450
	1    0    0    -1  
$EndComp
$Comp
L Q_NMOS_GSD Q13
U 1 1 583F823B
P 8400 1900
F 0 "Q13" H 8700 1950 50  0000 R CNN
F 1 "AO3400A" H 9050 1850 50  0000 R CNN
F 2 "TO_SOT_Packages_SMD:SOT-23" H 8600 2000 50  0001 C CNN
F 3 "" H 8400 1900 50  0000 C CNN
	1    8400 1900
	1    0    0    -1  
$EndComp
Text GLabel 8150 1900 0    60   Input ~ 0
OP3_EN
Text GLabel 8150 2250 0    60   Input ~ 0
OD3_EN
Text GLabel 9800 1900 2    60   Input ~ 0
OUT_3
$Comp
L Q_PMOS_GSD Q11
U 1 1 583F8507
P 6600 4000
F 0 "Q11" H 6900 4050 50  0000 R CNN
F 1 "AO3401A" H 7250 3950 50  0000 R CNN
F 2 "TO_SOT_Packages_SMD:SOT-23" H 6800 4100 50  0001 C CNN
F 3 "http://aosmd.com/res/data_sheets/AO3401A.pdf" H 6600 4000 50  0001 C CNN
	1    6600 4000
	1    0    0    1   
$EndComp
$Comp
L Q_NMOS_GSD Q12
U 1 1 583F850D
P 6600 4700
F 0 "Q12" H 6900 4750 50  0000 R CNN
F 1 "AO3400A" H 7250 4650 50  0000 R CNN
F 2 "TO_SOT_Packages_SMD:SOT-23" H 7250 4650 50  0001 R CNN
F 3 "" H 6600 4700 50  0000 C CNN
	1    6600 4700
	1    0    0    -1  
$EndComp
$Comp
L GND #PWR8
U 1 1 583F8513
P 6700 5100
F 0 "#PWR8" H 6700 4850 50  0001 C CNN
F 1 "GND" H 6700 4950 50  0000 C CNN
F 2 "" H 6700 5100 50  0000 C CNN
F 3 "" H 6700 5100 50  0000 C CNN
	1    6700 5100
	1    0    0    -1  
$EndComp
$Comp
L VCOM #PWR7
U 1 1 583F8519
P 6700 3350
F 0 "#PWR7" H 6700 3200 50  0001 C CNN
F 1 "VCOM" H 6700 3500 50  0000 C CNN
F 2 "" H 6700 3350 50  0000 C CNN
F 3 "" H 6700 3350 50  0000 C CNN
	1    6700 3350
	1    0    0    -1  
$EndComp
$Comp
L R R8
U 1 1 583F8525
P 6000 3600
F 0 "R8" V 6080 3600 50  0000 C CNN
F 1 "R" V 6000 3600 50  0000 C CNN
F 2 "Resistors_SMD:R_0805_HandSoldering" V 5930 3600 50  0001 C CNN
F 3 "" H 6000 3600 50  0000 C CNN
	1    6000 3600
	1    0    0    -1  
$EndComp
$Comp
L R R10
U 1 1 583F852B
P 6150 4900
F 0 "R10" V 6230 4900 50  0000 C CNN
F 1 "R" V 6150 4900 50  0000 C CNN
F 2 "Resistors_SMD:R_0805_HandSoldering" V 6080 4900 50  0001 C CNN
F 3 "" H 6150 4900 50  0000 C CNN
	1    6150 4900
	1    0    0    -1  
$EndComp
$Comp
L Q_NMOS_GSD Q8
U 1 1 583F8531
P 5900 4350
F 0 "Q8" H 6200 4400 50  0000 R CNN
F 1 "AO3400A" H 6550 4300 50  0000 R CNN
F 2 "TO_SOT_Packages_SMD:SOT-23" H 6100 4450 50  0001 C CNN
F 3 "" H 5900 4350 50  0000 C CNN
	1    5900 4350
	1    0    0    -1  
$EndComp
Text GLabel 5650 4350 0    60   Input ~ 0
OP5_EN
Text GLabel 5650 4700 0    60   Input ~ 0
OD5_EN
Text GLabel 7300 4350 2    60   Input ~ 0
OUT_5
Wire Wire Line
	4200 3350 4200 3800
Wire Wire Line
	4200 4200 4200 4500
Wire Wire Line
	4200 5100 4200 4900
Wire Wire Line
	3650 5050 3650 5100
Wire Wire Line
	3500 5100 4200 5100
Wire Wire Line
	3150 4700 3900 4700
Wire Wire Line
	3500 4550 3500 5100
Connection ~ 3650 5100
Wire Wire Line
	3650 4750 3650 4700
Connection ~ 3650 4700
Wire Wire Line
	3900 4000 3500 4000
Wire Wire Line
	3500 3750 3500 4150
Connection ~ 3500 4000
Wire Wire Line
	3200 4350 3150 4350
Wire Wire Line
	3500 3450 3500 3350
Wire Wire Line
	3500 3350 4200 3350
Wire Wire Line
	4200 4350 4800 4350
Connection ~ 4200 4350
Wire Wire Line
	4200 900  4200 1350
Wire Wire Line
	4200 1750 4200 2050
Wire Wire Line
	4200 2650 4200 2450
Wire Wire Line
	3650 2600 3650 2650
Wire Wire Line
	3500 2650 4200 2650
Wire Wire Line
	3150 2250 3900 2250
Wire Wire Line
	3500 2100 3500 2650
Connection ~ 3650 2650
Wire Wire Line
	3650 2300 3650 2250
Connection ~ 3650 2250
Wire Wire Line
	3900 1550 3500 1550
Wire Wire Line
	3500 1300 3500 1700
Connection ~ 3500 1550
Wire Wire Line
	3200 1900 3150 1900
Wire Wire Line
	3500 1000 3500 900 
Wire Wire Line
	3500 900  4200 900 
Wire Wire Line
	4200 1900 4800 1900
Connection ~ 4200 1900
Wire Wire Line
	6700 900  6700 1350
Wire Wire Line
	6700 1750 6700 2050
Wire Wire Line
	6700 2650 6700 2450
Wire Wire Line
	6150 2600 6150 2650
Wire Wire Line
	6000 2650 6700 2650
Wire Wire Line
	5650 2250 6400 2250
Wire Wire Line
	6000 2100 6000 2650
Connection ~ 6150 2650
Wire Wire Line
	6150 2300 6150 2250
Connection ~ 6150 2250
Wire Wire Line
	6400 1550 6000 1550
Wire Wire Line
	6000 1300 6000 1700
Connection ~ 6000 1550
Wire Wire Line
	5700 1900 5650 1900
Wire Wire Line
	6000 1000 6000 900 
Wire Wire Line
	6000 900  6700 900 
Wire Wire Line
	6700 1900 7300 1900
Connection ~ 6700 1900
Wire Wire Line
	9200 900  9200 1350
Wire Wire Line
	9200 1750 9200 2050
Wire Wire Line
	9200 2650 9200 2450
Wire Wire Line
	8650 2600 8650 2650
Wire Wire Line
	8500 2650 9200 2650
Wire Wire Line
	8150 2250 8900 2250
Wire Wire Line
	8500 2100 8500 2650
Connection ~ 8650 2650
Wire Wire Line
	8650 2300 8650 2250
Connection ~ 8650 2250
Wire Wire Line
	8900 1550 8500 1550
Wire Wire Line
	8500 1300 8500 1700
Connection ~ 8500 1550
Wire Wire Line
	8200 1900 8150 1900
Wire Wire Line
	8500 1000 8500 900 
Wire Wire Line
	8500 900  9200 900 
Wire Wire Line
	9200 1900 9800 1900
Connection ~ 9200 1900
Wire Wire Line
	6700 3350 6700 3800
Wire Wire Line
	6700 4200 6700 4500
Wire Wire Line
	6700 5100 6700 4900
Wire Wire Line
	6150 5050 6150 5100
Wire Wire Line
	6000 5100 6700 5100
Wire Wire Line
	5650 4700 6400 4700
Wire Wire Line
	6000 4550 6000 5100
Connection ~ 6150 5100
Wire Wire Line
	6150 4750 6150 4700
Connection ~ 6150 4700
Wire Wire Line
	6400 4000 6000 4000
Wire Wire Line
	6000 3750 6000 4150
Connection ~ 6000 4000
Wire Wire Line
	5700 4350 5650 4350
Wire Wire Line
	6000 3450 6000 3350
Wire Wire Line
	6000 3350 6700 3350
Wire Wire Line
	6700 4350 7300 4350
Connection ~ 6700 4350
$Comp
L CONN_01X08 P2
U 1 1 583F6CE4
P 11000 3350
F 0 "P2" H 11000 3650 50  0000 C CNN
F 1 "CONN_01X05" V 11100 3350 50  0000 C CNN
F 2 "Terminal_Blocks:TerminalBlock_WAGO-804_RM5mm_8pol" H 11000 3350 50  0001 C CNN
F 3 "" H 11000 3350 50  0000 C CNN
	1    11000 3350
	1    0    0    -1  
$EndComp
$Comp
L GND #PWR14
U 1 1 584675EA
P 10700 3750
F 0 "#PWR14" H 10700 3500 50  0001 C CNN
F 1 "GND" H 10700 3600 50  0000 C CNN
F 2 "" H 10700 3750 50  0000 C CNN
F 3 "" H 10700 3750 50  0000 C CNN
	1    10700 3750
	1    0    0    -1  
$EndComp
$Comp
L VCOM #PWR13
U 1 1 5846764F
P 10300 3500
F 0 "#PWR13" H 10300 3350 50  0001 C CNN
F 1 "VCOM" H 10300 3650 50  0000 C CNN
F 2 "" H 10300 3500 50  0000 C CNN
F 3 "" H 10300 3500 50  0000 C CNN
	1    10300 3500
	1    0    0    -1  
$EndComp
Wire Wire Line
	10300 3500 10800 3500
Wire Wire Line
	10800 3600 10800 3700
Wire Wire Line
	10700 3750 10700 3700
Wire Wire Line
	10700 3700 10800 3700
$Comp
L CP1 C6
U 1 1 58467B97
P 9400 3650
F 0 "C6" H 9425 3750 50  0000 L CNN
F 1 "CP1" H 9425 3550 50  0000 L CNN
F 2 "Capacitors_ThroughHole:C_Radial_D10_L20_P2.5-5" H 9400 3650 50  0001 C CNN
F 3 "" H 9400 3650 50  0000 C CNN
	1    9400 3650
	1    0    0    -1  
$EndComp
$Comp
L C_Small C5
U 1 1 58467C0C
P 9050 3650
F 0 "C5" H 9060 3720 50  0000 L CNN
F 1 "C_Small" H 9060 3570 50  0000 L CNN
F 2 "Capacitors_SMD:C_0805_HandSoldering" H 9050 3650 50  0001 C CNN
F 3 "" H 9050 3650 50  0000 C CNN
	1    9050 3650
	1    0    0    -1  
$EndComp
$Comp
L C_Small C4
U 1 1 58467CD2
P 8800 3650
F 0 "C4" H 8810 3720 50  0000 L CNN
F 1 "C_Small" H 8810 3570 50  0000 L CNN
F 2 "Capacitors_SMD:C_0805_HandSoldering" H 8800 3650 50  0001 C CNN
F 3 "" H 8800 3650 50  0000 C CNN
	1    8800 3650
	1    0    0    -1  
$EndComp
$Comp
L C_Small C3
U 1 1 58467D43
P 8550 3650
F 0 "C3" H 8560 3720 50  0000 L CNN
F 1 "C_Small" H 8560 3570 50  0000 L CNN
F 2 "Capacitors_SMD:C_0805_HandSoldering" H 8550 3650 50  0001 C CNN
F 3 "" H 8550 3650 50  0000 C CNN
	1    8550 3650
	1    0    0    -1  
$EndComp
$Comp
L C_Small C2
U 1 1 58467DA8
P 8300 3650
F 0 "C2" H 8310 3720 50  0000 L CNN
F 1 "C_Small" H 8310 3570 50  0000 L CNN
F 2 "Capacitors_SMD:C_0805_HandSoldering" H 8300 3650 50  0001 C CNN
F 3 "" H 8300 3650 50  0000 C CNN
	1    8300 3650
	1    0    0    -1  
$EndComp
$Comp
L C_Small C1
U 1 1 58467E0B
P 8050 3650
F 0 "C1" H 8060 3720 50  0000 L CNN
F 1 "C_Small" H 8060 3570 50  0000 L CNN
F 2 "Capacitors_SMD:C_0805_HandSoldering" H 8050 3650 50  0001 C CNN
F 3 "" H 8050 3650 50  0000 C CNN
	1    8050 3650
	1    0    0    -1  
$EndComp
Wire Wire Line
	8050 3550 9250 3550
Connection ~ 8300 3550
Connection ~ 8550 3550
Connection ~ 8800 3550
Wire Wire Line
	9250 3550 9250 3500
Wire Wire Line
	9250 3500 9400 3500
Connection ~ 9050 3550
Wire Wire Line
	9400 3800 9250 3800
Wire Wire Line
	9250 3800 9250 3750
Wire Wire Line
	9250 3750 8050 3750
Connection ~ 9050 3750
Connection ~ 8800 3750
Connection ~ 8550 3750
Connection ~ 8300 3750
$Comp
L GND #PWR10
U 1 1 58468800
P 8800 3850
F 0 "#PWR10" H 8800 3600 50  0001 C CNN
F 1 "GND" H 8800 3700 50  0000 C CNN
F 2 "" H 8800 3850 50  0000 C CNN
F 3 "" H 8800 3850 50  0000 C CNN
	1    8800 3850
	1    0    0    -1  
$EndComp
$Comp
L VCOM #PWR9
U 1 1 58468856
P 8800 3450
F 0 "#PWR9" H 8800 3300 50  0001 C CNN
F 1 "VCOM" H 8800 3600 50  0000 C CNN
F 2 "" H 8800 3450 50  0000 C CNN
F 3 "" H 8800 3450 50  0000 C CNN
	1    8800 3450
	1    0    0    -1  
$EndComp
Wire Wire Line
	8800 3450 8800 3550
Wire Wire Line
	8800 3750 8800 3850
$EndSCHEMATC
