:100000002DE9F047CB680F69D1F820908E6A174D23
:100010000C4680469847A368824628469847014682
:100020005046C847A36881461148984702220146B6
:100030004846B847E3682769D4F820A0814640467F
:100040009847A36880462846984701464046D047CF
:10005000A368804628469847012201464046B84793
:1000600001464846B047BDE8F08700BF00100000D9
:040070000510000077
:0A100000343030300033303030005F
:0400000300000001F8
:00000001FF
