:100000002DE9F843CB680E690F6A8D6A0C4680466D
:100010009847E36881464FF47A609847014648461E
:10002000B847E36807464FF47A70984702220146C2
:100030003846B047E3682669D4F820900746404622
:100040009847E36880464FF47A60984701464046F7
:10005000C847E36880464FF4FA609847012201469A
:0E0060004046B04701463846A847BDE8F88341
:0400000300000001F8
:00000001FF
